﻿<?xml version="1.0" encoding="utf-8"?>
<svg version="1.1" xmlns:xlink="http://www.w3.org/1999/xlink" width="2px" height="61px" xmlns="http://www.w3.org/2000/svg">
  <g transform="matrix(1 0 0 1 -240 0 )">
    <path d="M 240.5 0  L 240.5 60  " stroke-width="1" stroke="#64b5f6" fill="none" stroke-opacity="0.498039215686275" />
  </g>
</svg>