<svg width="36" height="36" viewBox="0 0 36 36" fill="none" xmlns="http://www.w3.org/2000/svg">
<rect width="36" height="36" rx="4" fill="#9F224E"/>
<path d="M30.8287 33.6971H5.17128C3.97205 33.6971 3 32.7251 3 31.5259V4.17128C3 2.97205 3.97205 2 5.17128 2H30.8287C32.0279 2 33 2.97205 33 4.17128V31.5259C33 32.7251 32.0279 33.6971 30.8287 33.6971Z" fill="#9F224E"/>
<path d="M5.90576 29.4555V6.24159C5.90576 5.41718 6.57411 4.74883 7.39851 4.74883H28.4032C29.2276 4.74883 29.8959 5.41718 29.8959 6.24159V10.2059C29.8959 11.0303 29.2276 11.6987 28.4032 11.6987H13.6868V13.8892H21.6642C22.4886 13.8892 23.157 14.5576 23.157 15.382V19.326C23.157 20.1504 22.4886 20.8187 21.6642 20.8187H13.6868V23.5988H28.6016C29.426 23.5988 30.0943 24.2671 30.0943 25.0915V29.4555C30.0943 30.2799 29.426 30.9483 28.6016 30.9483H7.39851C6.57411 30.9483 5.90576 30.2799 5.90576 29.4555Z" fill="#FEFDFD"/>
<path d="M7.39844 6.24159H28.4031V10.2059H12.194V15.382H21.6641V19.3258H12.194V25.0914H28.6015V29.4555H7.39844V6.24159Z" fill="#9F224E"/>
</svg>
